Name,Folder,Round1,Round2,Round3,Click
1,1,你好,我心口有好多好野睇,你仲想睇哶,好
2,2,大家大,不如你來睇下,我有好多資料,多謝你
3,3,hello,我識好多野架,"有好野益你, 過來睇下",唔該曬
4,4,你好,我心口有好多好野睇,你仲想睇哶,好
5,5,大家大,不如你來睇下,我有好多資料,多謝你
6,6,hello,我識好多野架,"有好野益你, 過來睇下",唔該曬
